<?xml version="1.0" standalone="no"?>
<!DOCTYPE svg PUBLIC "-//W3C//DTD SVG 20010904//EN"
 "http://www.w3.org/TR/2001/REC-SVG-20010904/DTD/svg10.dtd">
<svg version="1.0" xmlns="http://www.w3.org/2000/svg"
 width="394.000000pt" height="394.000000pt" viewBox="0 0 394.000000 394.000000"
 preserveAspectRatio="xMidYMid meet">

<g transform="translate(0.000000,394.000000) scale(0.100000,-0.100000)"
fill="#000000" stroke="none">
<path d="M0 1970 l0 -1970 1970 0 1970 0 0 1970 0 1970 -1970 0 -1970 0 0
-1970z m2147 1415 c248 -40 470 -152 643 -325 537 -535 397 -1427 -279 -1779
-173 -90 -344 -131 -546 -131 -323 0 -590 108 -818 329 -177 172 -289 386
-327 624 -20 121 -8 339 25 457 153 559 721 919 1302 825z m-979 -2397 c3 -16
-8 -18 -118 -18 l-121 0 3 -37 3 -38 103 -3 c82 -2 102 -6 102 -17 0 -12 -19
-15 -105 -15 l-105 0 0 -70 0 -69 117 -3 c103 -3 118 -5 121 -20 3 -16 -8 -18
-132 -18 l-136 0 0 165 0 166 132 -3 c117 -3 133 -5 136 -20z m570 -7 c60 -32
86 -153 47 -220 -81 -138 -264 -81 -265 82 0 126 110 196 218 138z m671 7 c28
-17 44 -68 32 -99 -17 -47 -44 -60 -130 -66 l-81 -6 0 -68 c0 -62 -2 -69 -20
-69 -19 0 -20 7 -20 158 0 87 3 162 8 166 11 13 187 -1 211 -16z m349 0 c3
-16 -8 -18 -118 -18 l-121 0 3 -37 3 -38 103 -3 c82 -2 102 -6 102 -17 0 -12
-19 -15 -105 -15 l-105 0 0 -70 0 -69 117 -3 c104 -3 118 -5 121 -21 3 -16 -7
-17 -135 -15 l-138 3 -3 150 c-1 82 0 155 3 162 3 11 34 13 137 11 117 -3 133
-5 136 -20z m270 3 c11 -6 25 -26 31 -44 19 -55 -3 -95 -66 -122 -2 -1 13 -30
32 -66 40 -73 42 -82 18 -77 -10 2 -34 32 -53 68 l-35 65 -53 3 -52 3 0 -70
c0 -64 -2 -71 -20 -71 -19 0 -20 7 -20 158 0 87 3 162 8 166 10 11 186 0 210
-13z m-1593 -22 c22 -19 35 -40 35 -55 0 -33 -21 -29 -45 9 -50 79 -149 54
-175 -44 -10 -35 -9 -50 5 -86 20 -51 47 -73 93 -73 33 0 82 36 93 69 3 7 12
12 22 10 16 -4 16 -6 0 -39 -70 -139 -253 -79 -253 83 0 58 30 121 68 141 15
8 48 15 74 16 39 0 54 -5 83 -31z m625 14 c65 -38 93 -157 53 -225 -59 -101
-198 -98 -247 6 -50 107 16 236 121 236 25 0 58 -7 73 -17z"/>
<path d="M1800 3269 c-156 -23 -329 -91 -461 -179 -96 -64 -237 -211 -297
-310 -81 -131 -142 -314 -142 -425 l0 -35 650 0 c358 0 650 2 650 4 0 27 -48
146 -78 192 -42 64 -113 134 -137 134 -25 0 -129 -114 -156 -169 -23 -49 -26
-51 -54 -45 -16 3 -33 9 -38 13 -13 13 60 143 113 203 l51 57 -53 16 c-239 74
-510 -32 -621 -242 -30 -57 -43 -71 -77 -85 l-41 -17 6 32 c28 135 166 302
305 371 109 53 218 73 330 59 51 -7 115 -23 152 -38 34 -15 72 -27 83 -27 11
0 61 15 110 33 80 29 101 33 195 33 88 0 118 -5 183 -27 127 -44 221 -113 292
-212 40 -56 90 -153 82 -161 -1 -2 -22 2 -45 9 -32 10 -48 23 -70 57 -60 94
-148 164 -259 207 -58 23 -84 27 -178 27 -82 1 -123 -4 -162 -17 -29 -10 -53
-21 -53 -24 0 -3 22 -29 49 -60 61 -68 106 -156 129 -250 l17 -73 379 0 379 0
-7 61 c-58 510 -527 904 -1070 898 -55 -1 -126 -5 -156 -10z"/>
<path d="M905 2147 c9 -81 49 -216 86 -290 150 -299 430 -508 768 -573 85 -16
297 -19 381 -5 345 58 643 271 789 566 43 87 84 218 95 303 l7 52 -379 0 -378
0 -14 -67 c-16 -84 -76 -203 -135 -270 -25 -28 -45 -53 -45 -56 0 -15 135 -40
215 -39 182 1 338 85 438 236 18 28 40 45 72 57 l46 17 -7 -21 c-34 -113 -171
-268 -284 -324 -167 -82 -359 -85 -526 -9 l-50 23 -47 -23 c-103 -53 -279 -69
-400 -38 -183 47 -339 188 -403 362 -15 40 -25 75 -22 78 3 3 22 -3 42 -13 28
-13 45 -33 69 -77 61 -115 184 -212 319 -253 92 -27 237 -19 335 18 l25 9 -42
44 c-22 23 -52 59 -66 79 -25 37 -67 127 -62 133 2 1 19 5 39 9 34 6 36 5 55
-36 20 -45 141 -179 161 -179 6 0 35 24 65 54 76 74 119 153 142 258 l6 28
-651 2 -651 3 7 -58z"/>
<path d="M1600 943 c-81 -73 -41 -223 59 -223 46 0 79 23 97 66 37 88 -15 184
-100 184 -14 0 -39 -12 -56 -27z"/>
<path d="M2230 915 l0 -55 70 0 c57 0 74 4 90 20 50 50 9 90 -92 90 l-68 0 0
-55z"/>
<path d="M2850 915 l0 -55 68 0 c77 0 112 17 112 55 0 38 -35 55 -112 55 l-68
0 0 -55z"/>
<path d="M1931 945 c-59 -50 -64 -139 -11 -195 80 -86 209 16 170 134 -14 45
-63 86 -100 86 -16 0 -42 -11 -59 -25z"/>
</g>
</svg>
